{
    "question": "Good or bad?",
    "type": "many_choice",
    "answers": [
        {
            "answer": "Good answer",
            "correct": true,
            "feedback": "Correct"
        },
        {
            "answer": "Wrong answer",
            "correct": false,
            "feedback": "False, please try again"
        }
    ]
}